0 info it worked if it ends with ok
1 verbose cli [ 'E:\\Wipro_WorkSpace\\nodejs\\node.exe',
1 verbose cli   'E:\\Wipro_WorkSpace\\nodejs\\node_modules\\npm\\bin\\npm-cli.js',
1 verbose cli   'start' ]
2 info using npm@3.10.8
3 info using node@v6.9.1
4 verbose run-script [ 'prestart', 'start', 'poststart' ]
5 info lifecycle handsome@0.1.1~prestart: handsome@0.1.1
6 silly lifecycle handsome@0.1.1~prestart: no script for prestart, continuing
7 info lifecycle handsome@0.1.1~start: handsome@0.1.1
8 verbose lifecycle handsome@0.1.1~start: unsafe-perm in lifecycle true
9 verbose lifecycle handsome@0.1.1~start: PATH: E:\Wipro_WorkSpace\nodejs\node_modules\npm\bin\node-gyp-bin;E:\Wipro_WorkSpace\handsome\node_modules\.bin;C:\Program Files\Docker\Docker\Resources\bin;C:\ProgramData\Oracle\Java\javapath;C:\windows\system32;C:\windows;C:\windows\System32\Wbem;C:\windows\System32\WindowsPowerShell\v1.0\;C:\Program Files\nodejs\;C:\Program Files (x86)\GitExtensions\;C:\Program Files\MongoDB\Server\3.4\bin;E:\Wipro_WorkSpace\nodejs;C:\Users\th351985\AppData\Local\Microsoft\WindowsApps;C:\Users\th351985\AppData\Local\atom\bin;C:\Users\th351985\AppData\Local\Programs\Git\cmd
10 verbose lifecycle handsome@0.1.1~start: CWD: E:\Wipro_WorkSpace\handsome
11 silly lifecycle handsome@0.1.1~start: Args: [ '/d /s /c', 'babel-node app.js' ]
12 silly lifecycle handsome@0.1.1~start: Returned: code: 1  signal: null
13 info lifecycle handsome@0.1.1~start: Failed to exec start script
14 verbose stack Error: handsome@0.1.1 start: `babel-node app.js`
14 verbose stack Exit status 1
14 verbose stack     at EventEmitter.<anonymous> (E:\Wipro_WorkSpace\nodejs\node_modules\npm\lib\utils\lifecycle.js:255:16)
14 verbose stack     at emitTwo (events.js:106:13)
14 verbose stack     at EventEmitter.emit (events.js:191:7)
14 verbose stack     at ChildProcess.<anonymous> (E:\Wipro_WorkSpace\nodejs\node_modules\npm\lib\utils\spawn.js:40:14)
14 verbose stack     at emitTwo (events.js:106:13)
14 verbose stack     at ChildProcess.emit (events.js:191:7)
14 verbose stack     at maybeClose (internal/child_process.js:877:16)
14 verbose stack     at Process.ChildProcess._handle.onexit (internal/child_process.js:226:5)
15 verbose pkgid handsome@0.1.1
16 verbose cwd E:\Wipro_WorkSpace\handsome
17 error Windows_NT 10.0.14393
18 error argv "E:\\Wipro_WorkSpace\\nodejs\\node.exe" "E:\\Wipro_WorkSpace\\nodejs\\node_modules\\npm\\bin\\npm-cli.js" "start"
19 error node v6.9.1
20 error npm  v3.10.8
21 error code ELIFECYCLE
22 error handsome@0.1.1 start: `babel-node app.js`
22 error Exit status 1
23 error Failed at the handsome@0.1.1 start script 'babel-node app.js'.
23 error Make sure you have the latest version of node.js and npm installed.
23 error If you do, this is most likely a problem with the handsome package,
23 error not with npm itself.
23 error Tell the author that this fails on your system:
23 error     babel-node app.js
23 error You can get information on how to open an issue for this project with:
23 error     npm bugs handsome
23 error Or if that isn't available, you can get their info via:
23 error     npm owner ls handsome
23 error There is likely additional logging output above.
24 verbose exit [ 1, true ]
