{
  "first_widget" : {
    "title" : "23-04-2018",
    "data" : "http://maxcdn.webappers.com/img/2012/11/dashboard-framework.png",
    "link" : "http://maxcdn.webappers.com/img/2012/11/dashboard-framework.png"
  },
  "second_widget" : {
    "title" : "Release Number",
    "data" : "10",
    "link" : "http://maxcdn.webappers.com/img/2012/11/dashboard-framework.png"
  },
  "third_widget" : {
    "title" : "Sprint Number",
    "data" : "5",
    "link" : "http://maxcdn.webappers.com/img/2012/11/dashboard-framework.png"
  },
  "fourth_widget" : {
    "title" : "Team Members",
    "data" : "20",
    "link" : "http://maxcdn.webappers.com/img/2012/11/dashboard-framework.png"
  },
  "fifth_widget" : {
    "title" : "Release Burn Up Chart",
    "data" : {"sprint" : [1,2,3,4,5,6],
              "dataset1" : [500,500,500,546,545,542],
              "dataset2" : [80,170,270,360,450,545],
              "dataset3": [50,105,185,255],
              "dataHeads" : ["Scope","Planned","Completed"],
              "xlabel":"number of sprints",
              "ylabel":"story points"},
    "link" : "http://maxcdn.webappers.com/img/2012/11/dashboard-framework.png"

  },
  "sixth_widget" : {
    "title" : "Post Sprint Defects",
    "data" : "9",
    "link" : "http://maxcdn.webappers.com/img/2012/11/dashboard-framework.png"
  },
  "seventh_widget" : {
    "title" : "Test Automation Coverage",
    "data" : "70%",
    "link" : "http://maxcdn.webappers.com/img/2012/11/dashboard-framework.png"
  },
  "eigth_widget" : {
    "title" : "Velocity Trend",
    "data" : {"sprint" : [1,2,3,4,5,6],
                "dataset" : [50,55,80,70],
                "dataHeads" : "velocity",
                "xlabel":"number of sprints",
                "ylabel":"velocity"},
    "link" : "http://maxcdn.webappers.com/img/2012/11/dashboard-framework.png"
  },
  "ninth_widget" : {
    "title" : "PCSAT",
    "data" : "6",
    "link" : "http://maxcdn.webappers.com/img/2012/11/dashboard-framework.png"
  },
  "tenth_widget" : {
    "title" : "Sprint Burn Down",
    "data" : {"sprint":[1,2,3,4,5,6,7,8,9,10],
              "dataset":[15,15,14,13,11,18],
              "dataHeads" : "Story PointsRemaining",
              "xlabel":"number of days",
              "ylabel":"story points"},
    "link" : "http://maxcdn.webappers.com/img/2012/11/dashboard-framework.png"
  },
  "eleventh_widget" : {
    "title" : "User Stories Commited vs Delivered",
    "data" : {"sprint":[1,2,3,4,5,6],
              "dataset1" : [10,8,12,8],
              "dataset2" : [8,8,10,8,2],
              "dataHeads":["Commited Stories","Delivered Stories"],
              "xlabel":"number of sprints",
              "ylabel":"story points"},
    "link" : "http://maxcdn.webappers.com/img/2012/11/dashboard-framework.png"
  },
  "twelfth_widget" : {
    "title" : "Requirement Volatility",
    "data" : {"sprint":[1,2,3,4,5,6],
              "dataset" : [10,0,25,15,0,20],
              "dataHeads":"Requirement Volatility",
              "xlabel":"number of sprints",
              "ylabel":"volatility"},
    "link" : "http://maxcdn.webappers.com/img/2012/11/dashboard-framework.png"
  }
}
